^C:\USERS\KENNY\SOURCE\REPOS\APLICALC_ANCHOR\APLICALC_ANCHOR\SOURCE.CPP
/c /ZI /nologo /W3 /WX- /diagnostics:classic /sdl /Od /Oy- /D _MBCS /Gm /EHsc /RTC1 /MDd /GS /fp:precise /permissive- /Zc:wchar_t /Zc:forScope /Zc:inline /Fo"DEBUG\\" /Fd"DEBUG\VC141.PDB" /Gd /TP /analyze- C:\USERS\KENNY\SOURCE\REPOS\APLICALC_ANCHOR\APLICALC_ANCHOR\SOURCE.CPP
^C:\USERS\KENNY\DOCUMENTS\APLCALC-TG001-2T-SY1718\APLICALC_ANCHOR\APLICALC_ANCHOR\SOURCE.CPP
/c /ZI /nologo /W3 /WX- /diagnostics:classic /sdl /Od /Oy- /D _MBCS /Gm /EHsc /RTC1 /MDd /GS /fp:precise /permissive- /Zc:wchar_t /Zc:forScope /Zc:inline /Fo"DEBUG\\" /Fd"DEBUG\VC141.PDB" /Gd /TP /analyze- C:\USERS\KENNY\DOCUMENTS\APLCALC-TG001-2T-SY1718\APLICALC_ANCHOR\APLICALC_ANCHOR\SOURCE.CPP
